module gitlab.ptsecurity.com/appsec-platform/models

go 1.21.0

toolchain go1.21.3

require (
	buf.build/gen/go/bufbuild/protovalidate/protocolbuffers/go v1.31.0-20231115204500-e097f827e652.2
	github.com/grpc-ecosystem/grpc-gateway/v2 v2.18.1
	google.golang.org/genproto/googleapis/api v0.0.0-20231106174013-bbf56f31fb17
	google.golang.org/protobuf v1.31.0
)

require google.golang.org/genproto v0.0.0-20231030173426-d783a09b4405 // indirect
